{
    "allOf": [{
        "type": "object",
        "properties": {
            "fundRaiseId": {
                "type": "string"
            },
            "productTypeId": {
                "type": "string"
            },
            "businessLineId": {
                "type": "string"
            }
        }
    }, {
        "anyOf": [{
            "properties": {
                "fundRaiseId": {
                    "$ref": "#/definitions/nonEmptyString"
                }
            }
        }, {
            "properties": {
                "productTypeId": {
                    "$ref": "#/definitions/nonEmptyString"
                }
            }
        }, {
            "properties": {
                "businessLineId": {
                    "$ref": "#/definitions/nonEmptyString"
                }
            }
        }]
    }],
    "definitions": {
        "nonEmptyString": {
            "type": "string",
            "minLength": 1
        }
    }
}
